  0
SECTION
  2
HEADER
  9
$ACADVER
  1
AC1014
  9
$HANDSEED
  5
FFFF
  9
$MEASUREMENT
 70
     1
  0
ENDSEC
  0
SECTION
  2
TABLES
  0
TABLE
  2
VPORT
  5
8
330
0
100
AcDbSymbolTable
 70
     4
  0
VPORT
  5
2E
330
8
100
AcDbSymbolTableRecord
100
AcDbViewportTableRecord
  2
*ACTIVE
 70
     0
 10
0.0
 20
0.0
 11
1.0
 21
1.0
 12
210.0
 22
148.5
 13
0.0
 23
0.0
 14
10.0
 24
10.0
 15
10.0
 25
10.0
 16
0.0
 26
0.0
 36
1.0
 17
0.0
 27
0.0
 37
0.0
 40
341.0
 41
1.24
 42
50.0
 43
0.0
 44
0.0
 50
0.0
 51
0.0
 71
     0
 72
   100
 73
     1
 74
     3
 75
     0
 76
     0
 77
     0
 78
     0
  0
ENDTAB
  0
TABLE
  2
LTYPE
  5
5
330
0
100
AcDbSymbolTable
 70
     1
  0
LTYPE
  5
14
330
5
100
AcDbSymbolTableRecord
100
AcDbLinetypeTableRecord
  2
BYBLOCK
 70
     0
  3

 72
    65
 73
     0
 40
0.0
  0
LTYPE
  5
15
330
5
100
AcDbSymbolTableRecord
100
AcDbLinetypeTableRecord
  2
BYLAYER
 70
     0
  3

 72
    65
 73
     0
 40
0.0
  0
LTYPE
  5
16
330
5
100
AcDbSymbolTableRecord
100
AcDbLinetypeTableRecord
  2
CONTINUOUS
 70
     0
  3
Solid line
 72
    65
 73
     0
 40
0.0
  0
ENDTAB
  0
TABLE
  2
LAYER
  5
2
100
AcDbSymbolTable
 70
2
  0
LAYER
  5
50
100
AcDbSymbolTableRecord
100
AcDbLayerTableRecord
  2
0
 70
0
  6
CONTINUOUS
  0
LAYER
  5
51
100
AcDbSymbolTableRecord
100
AcDbLayerTableRecord
  2
rectangle
 70
0
  6
CONTINUOUS
  0
ENDTAB
  0
TABLE
  2
STYLE
  5
3
330
0
100
AcDbSymbolTable
 70
     1
  0
STYLE
  5
11
330
3
100
AcDbSymbolTableRecord
100
AcDbTextStyleTableRecord
  2
STANDARD
 70
     0
 40
0.0
 41
1.0
 50
0.0
 71
     0
 42
2.5
  3
txt
  4

  0
ENDTAB
  0
TABLE
  2
VIEW
  5
6
330
0
100
AcDbSymbolTable
 70
     0
  0
ENDTAB
  0
TABLE
  2
UCS
  5
7
330
0
100
AcDbSymbolTable
 70
     0
  0
ENDTAB
  0
TABLE
  2
APPID
  5
9
330
0
100
AcDbSymbolTable
 70
     2
  0
APPID
  5
12
330
9
100
AcDbSymbolTableRecord
100
AcDbRegAppTableRecord
  2
ACAD
 70
     0
  0
ENDTAB
  0
TABLE
  2
DIMSTYLE
  5
A
330
0
100
AcDbSymbolTable
 70
     1
  0
DIMSTYLE
105
27
330
A
100
AcDbSymbolTableRecord
100
AcDbDimStyleTableRecord
  2
ISO-25
 70
     0
  3

  4

  5

  6

  7

 40
1.0
 41
2.5
 42
0.625
 43
3.75
 44
1.25
 45
0.0
 46
0.0
 47
0.0
 48
0.0
140
2.5
141
2.5
142
0.0
143
0.03937007874016
144
1.0
145
0.0
146
1.0
147
0.625
 71
     0
 72
     0
 73
     0
 74
     0
 75
     0
 76
     0
 77
     1
 78
     8
170
     0
171
     3
172
     1
173
     0
174
     0
175
     0
176
     0
177
     0
178
     0
270
     2
271
     2
272
     2
273
     2
274
     3
340
11
275
     0
280
     0
281
     0
282
     0
283
     0
284
     8
285
     0
286
     0
287
     3
288
     0
  0
ENDTAB
  0
TABLE
  2
BLOCK_RECORD
  5
1
330
0
100
AcDbSymbolTable
 70
     1
  0
BLOCK_RECORD
  5
1F
330
1
100
AcDbSymbolTableRecord
100
AcDbBlockTableRecord
  2
*MODEL_SPACE
  0
BLOCK_RECORD
  5
1B
330
1
100
AcDbSymbolTableRecord
100
AcDbBlockTableRecord
  2
*PAPER_SPACE
  0
ENDTAB
  0
ENDSEC
  0
SECTION
  2
BLOCKS
  0
BLOCK
  5
20
330
1F
100
AcDbEntity
  8
0
100
AcDbBlockBegin
  2
*MODEL_SPACE
 70
     0
 10
0.0
 20
0.0
 30
0.0
  3
*MODEL_SPACE
  1

  0
ENDBLK
  5
21
330
1F
100
AcDbEntity
  8
0
100
AcDbBlockEnd
  0
BLOCK
  5
1C
330
1B
100
AcDbEntity
 67
     1
  8
0
100
AcDbBlockBegin
  2
*PAPER_SPACE
  1

  0
ENDBLK
  5
1D
330
1B
100
AcDbEntity
 67
     1
  8
0
100
AcDbBlockEnd
  0
ENDSEC
  0
SECTION
  2
ENTITIES
  0
SPLINE
  5
100
100
AcDbEntity
  8
rectangle
 62
7
100
AcDbSpline
 70
8
 71
3
 72
8
 73
4
 74
0
 40
0
 40
0
 40
0
 40
0
 40
1
 40
1
 40
1
 40
1
 10
296.000000
 20
645.912496
 30
0.0
 10
312.959376
 20
636.120832
 30
0.0
 10
329.918752
 20
626.329168
 30
0.0
 10
346.878128
 20
616.537504
 30
0.0
  0
SPLINE
  5
101
100
AcDbEntity
  8
rectangle
 62
7
100
AcDbSpline
 70
8
 71
3
 72
8
 73
4
 74
0
 40
0
 40
0
 40
0
 40
0
 40
1
 40
1
 40
1
 40
1
 10
346.878128
 20
616.537504
 30
0.0
 10
337.603648
 20
600.475520
 30
0.0
 10
328.329168
 20
584.413544
 30
0.0
 10
319.054688
 20
568.351560
 30
0.0
  0
SPLINE
  5
102
100
AcDbEntity
  8
rectangle
 62
7
100
AcDbSpline
 70
8
 71
3
 72
8
 73
4
 74
0
 40
0
 40
0
 40
0
 40
0
 40
1
 40
1
 40
1
 40
1
 10
319.054688
 20
568.351560
 30
0.0
 10
368.146592
 20
540.310496
 30
0.0
 10
417.627344
 20
510.813952
 30
0.0
 10
466.476560
 20
483.681248
 30
0.0
  0
SPLINE
  5
103
100
AcDbEntity
  8
rectangle
 62
7
100
AcDbSpline
 70
8
 71
3
 72
8
 73
4
 74
0
 40
0
 40
0
 40
0
 40
0
 40
1
 40
1
 40
1
 40
1
 10
466.476560
 20
483.681248
 30
0.0
 10
475.686976
 20
499.632288
 30
0.0
 10
484.897400
 20
515.583336
 30
0.0
 10
494.107816
 20
531.534376
 30
0.0
  0
SPLINE
  5
104
100
AcDbEntity
  8
rectangle
 62
7
100
AcDbSpline
 70
8
 71
3
 72
8
 73
4
 74
0
 40
0
 40
0
 40
0
 40
0
 40
1
 40
1
 40
1
 40
1
 10
494.107816
 20
531.534376
 30
0.0
 10
511.069272
 20
521.741664
 30
0.0
 10
528.030728
 20
511.948960
 30
0.0
 10
544.992184
 20
502.156248
 30
0.0
  0
SPLINE
  5
105
100
AcDbEntity
  8
rectangle
 62
7
100
AcDbSpline
 70
8
 71
3
 72
8
 73
4
 74
0
 40
0
 40
0
 40
0
 40
0
 40
1
 40
1
 40
1
 40
1
 10
544.992184
 20
502.156248
 30
0.0
 10
544.992184
 20
406.318752
 30
0.0
 10
544.992184
 20
310.481248
 30
0.0
 10
544.992184
 20
214.643752
 30
0.0
  0
SPLINE
  5
106
100
AcDbEntity
  8
rectangle
 62
7
100
AcDbSpline
 70
8
 71
3
 72
8
 73
4
 74
0
 40
0
 40
0
 40
0
 40
0
 40
1
 40
1
 40
1
 40
1
 10
544.992184
 20
214.643752
 30
0.0
 10
527.900000
 20
204.775520
 30
0.0
 10
510.807808
 20
194.907296
 30
0.0
 10
493.715624
 20
185.039064
 30
0.0
  0
SPLINE
  5
107
100
AcDbEntity
  8
rectangle
 62
7
100
AcDbSpline
 70
8
 71
3
 72
8
 73
4
 74
0
 40
0
 40
0
 40
0
 40
0
 40
1
 40
1
 40
1
 40
1
 10
493.715624
 20
185.039064
 30
0.0
 10
484.418232
 20
201.118232
 30
0.0
 10
475.120832
 20
217.197392
 30
0.0
 10
465.823440
 20
233.276560
 30
0.0
  0
SPLINE
  5
108
100
AcDbEntity
  8
rectangle
 62
7
100
AcDbSpline
 70
8
 71
3
 72
8
 73
4
 74
0
 40
0
 40
0
 40
0
 40
0
 40
1
 40
1
 40
1
 40
1
 10
465.823440
 20
233.276560
 30
0.0
 10
416.765104
 20
204.910416
 30
0.0
 10
367.706776
 20
176.544272
 30
0.0
 10
318.648440
 20
148.178128
 30
0.0
  0
SPLINE
  5
109
100
AcDbEntity
  8
rectangle
 62
7
100
AcDbSpline
 70
8
 71
3
 72
8
 73
4
 74
0
 40
0
 40
0
 40
0
 40
0
 40
1
 40
1
 40
1
 40
1
 10
318.648440
 20
148.178128
 30
0.0
 10
327.928128
 20
132.130728
 30
0.0
 10
337.207816
 20
116.083336
 30
0.0
 10
346.487504
 20
100.035936
 30
0.0
  0
SPLINE
  5
10a
100
AcDbEntity
  8
rectangle
 62
7
100
AcDbSpline
 70
8
 71
3
 72
8
 73
4
 74
0
 40
0
 40
0
 40
0
 40
0
 40
1
 40
1
 40
1
 40
1
 10
346.487504
 20
100.035936
 30
0.0
 10
329.658336
 20
90.319792
 30
0.0
 10
312.829168
 20
80.603648
 30
0.0
 10
296.000000
 20
70.887504
 30
0.0
  0
SPLINE
  5
10b
100
AcDbEntity
  8
rectangle
 62
7
100
AcDbSpline
 70
8
 71
3
 72
8
 73
4
 74
0
 40
0
 40
0
 40
0
 40
0
 40
1
 40
1
 40
1
 40
1
 10
296.000000
 20
70.887504
 30
0.0
 10
213.002608
 20
118.806256
 30
0.0
 10
130.005208
 20
166.725000
 30
0.0
 10
47.007813
 20
214.643752
 30
0.0
  0
SPLINE
  5
10c
100
AcDbEntity
  8
rectangle
 62
7
100
AcDbSpline
 70
8
 71
3
 72
8
 73
4
 74
0
 40
0
 40
0
 40
0
 40
0
 40
1
 40
1
 40
1
 40
1
 10
47.007813
 20
214.643752
 30
0.0
 10
47.007813
 20
234.206776
 30
0.0
 10
47.007813
 20
253.769792
 30
0.0
 10
47.007813
 20
273.332816
 30
0.0
  0
SPLINE
  5
10d
100
AcDbEntity
  8
rectangle
 62
7
100
AcDbSpline
 70
8
 71
3
 72
8
 73
4
 74
0
 40
0
 40
0
 40
0
 40
0
 40
1
 40
1
 40
1
 40
1
 10
47.007813
 20
273.332816
 30
0.0
 10
65.622918
 20
273.356736
 30
0.0
 10
84.238024
 20
273.380736
 30
0.0
 10
102.853128
 20
273.404656
 30
0.0
  0
SPLINE
  5
10e
100
AcDbEntity
  8
rectangle
 62
7
100
AcDbSpline
 70
8
 71
3
 72
8
 73
4
 74
0
 40
0
 40
0
 40
0
 40
0
 40
1
 40
1
 40
1
 40
1
 10
102.853128
 20
273.404656
 30
0.0
 10
102.781768
 20
330.073408
 30
0.0
 10
102.710416
 20
386.742152
 30
0.0
 10
102.639064
 20
443.410904
 30
0.0
  0
SPLINE
  5
10f
100
AcDbEntity
  8
rectangle
 62
7
100
AcDbSpline
 70
8
 71
3
 72
8
 73
4
 74
0
 40
0
 40
0
 40
0
 40
0
 40
1
 40
1
 40
1
 40
1
 10
102.639064
 20
443.410904
 30
0.0
 10
84.095312
 20
443.386984
 30
0.0
 10
65.551563
 20
443.362984
 30
0.0
 10
47.007813
 20
443.339064
 30
0.0
  0
SPLINE
  5
110
100
AcDbEntity
  8
rectangle
 62
7
100
AcDbSpline
 70
8
 71
3
 72
8
 73
4
 74
0
 40
0
 40
0
 40
0
 40
0
 40
1
 40
1
 40
1
 40
1
 10
47.007813
 20
443.339064
 30
0.0
 10
47.007813
 20
462.944792
 30
0.0
 10
47.007813
 20
482.550520
 30
0.0
 10
47.007813
 20
502.156248
 30
0.0
  0
SPLINE
  5
111
100
AcDbEntity
  8
rectangle
 62
7
100
AcDbSpline
 70
8
 71
3
 72
8
 73
4
 74
0
 40
0
 40
0
 40
0
 40
0
 40
1
 40
1
 40
1
 40
1
 10
47.007813
 20
502.156248
 30
0.0
 10
130.005208
 20
550.075000
 30
0.0
 10
213.002608
 20
597.993744
 30
0.0
 10
296.000000
 20
645.912496
 30
0.0
  0
LWPOLYLINE
  5
112
100
AcDbEntity
  8
rectangle
 62
7
100
AcDbPolyline
 90
2
 70
1
 10
296.000000
 20
645.912496
 30
0.0
 10
296.000000
 20
645.912496
 30
0.0
  0
ENDSEC
  0
SECTION
  2
OBJECTS
  0
DICTIONARY
  5
C
330
0
100
AcDbDictionary
  3
ACAD_GROUP
350
D
  3
ACAD_MLINESTYLE
350
17
  0
DICTIONARY
  5
D
330
C
100
AcDbDictionary
  0
DICTIONARY
  5
1A
330
C
100
AcDbDictionary
  0
DICTIONARY
  5
17
330
C
100
AcDbDictionary
  3
STANDARD
350
18
  0
DICTIONARY
  5
19
330
C
100
AcDbDictionary
  0
ENDSEC
  0
EOF
