<?xml version="1.0" encoding="UTF-8" standalone="no"?>
<!-- Created with Inkscape (http://www.inkscape.org/) -->

<svg
   xmlns:osb="http://www.openswatchbook.org/uri/2009/osb"
   xmlns:dc="http://purl.org/dc/elements/1.1/"
   xmlns:cc="http://creativecommons.org/ns#"
   xmlns:rdf="http://www.w3.org/1999/02/22-rdf-syntax-ns#"
   xmlns:svg="http://www.w3.org/2000/svg"
   xmlns="http://www.w3.org/2000/svg"
   xmlns:sodipodi="http://sodipodi.sourceforge.net/DTD/sodipodi-0.dtd"
   xmlns:inkscape="http://www.inkscape.org/namespaces/inkscape"
   width="8.5in"
   height="11in"
   viewBox="0 0 765.00001 990.00002"
   id="svg2"
   version="1.1"
   inkscape:version="0.91 r13725"
   sodipodi:docname="top_rev2.svg">
  <sodipodi:namedview
     id="base"
     pagecolor="#ffffff"
     bordercolor="#666666"
     borderopacity="1.0"
     inkscape:pageopacity="0.0"
     inkscape:pageshadow="2"
     inkscape:zoom="0.64"
     inkscape:cx="288.33278"
     inkscape:cy="389.24101"
     inkscape:document-units="in"
     inkscape:current-layer="layer6"
     showgrid="true"
     units="in"
     showguides="true"
     inkscape:guide-bbox="true"
     inkscape:window-width="1280"
     inkscape:window-height="737"
     inkscape:window-x="-8"
     inkscape:window-y="-8"
     inkscape:window-maximized="1">
    <sodipodi:guide
       id="guide3378"
       orientation="990.0,0"
       position="348.58155,733.6233" />
    <sodipodi:guide
       id="guide3380"
       orientation="0,765.0"
       position="358.39844,-0.097656252" />
    <sodipodi:guide
       id="guide3382"
       orientation="0,765.0"
       position="415.62501,696.87501" />
    <sodipodi:guide
       position="47.336104,469.59763"
       orientation="1,0"
       id="guide3447" />
    <sodipodi:guide
       position="649.51626,489.17427"
       orientation="1,0"
       id="guide3449" />
  </sodipodi:namedview>
  <defs
     id="defs4">
    <linearGradient
       osb:paint="solid"
       id="linearGradient5892">
      <stop
         id="stop5894"
         offset="0"
         style="stop-color:#000000;stop-opacity:1;" />
    </linearGradient>
    <linearGradient
       id="linearGradient5597"
       osb:paint="solid">
      <stop
         style="stop-color:#000000;stop-opacity:1;"
         offset="0"
         id="stop5599" />
    </linearGradient>
  </defs>
  <metadata
     id="metadata7">
    <rdf:RDF>
      <cc:Work
         rdf:about="">
        <dc:format>image/svg+xml</dc:format>
        <dc:type
           rdf:resource="http://purl.org/dc/dcmitype/StillImage" />
        <dc:title></dc:title>
      </cc:Work>
    </rdf:RDF>
  </metadata>
  <g
     inkscape:groupmode="layer"
     id="layer1"
     inkscape:label="circle"
     style="display:none"
     sodipodi:insensitive="true">
    <ellipse
       style="display:inline;fill:#ff0000;fill-rule:evenodd;stroke:#000000;stroke-width:1.00337672px;stroke-linecap:butt;stroke-linejoin:miter;stroke-opacity:1"
       id="path4311"
       cx="348.8287"
       cy="641.39844"
       rx="348.32538"
       ry="348.16187" />
  </g>
  <g
     inkscape:groupmode="layer"
     id="layer4"
     inkscape:label="rectangle"
     style="display:inline"
     sodipodi:insensitive="true">
    <path
       sodipodi:type="star"
       style="fill:none;fill-opacity:1;stroke:#000000;stroke-width:0.99840081;stroke-opacity:1"
       id="path3451"
       sodipodi:sides="6"
       sodipodi:cx="348.8696"
       sodipodi:cy="642.12067"
       sodipodi:r1="347.88028"
       sodipodi:r2="301.27313"
       sodipodi:arg1="1.5707963"
       sodipodi:arg2="2.0943951"
       inkscape:flatsided="true"
       inkscape:rounded="0"
       inkscape:randomized="0"
       d="M 348.86961,990.00095 47.596443,816.06081 l -9e-6,-347.88028 301.273156,-173.94014 301.27316,173.94013 10e-6,347.88028 z"
       transform="matrix(0.99999894,0,0,1.0011899,-0.27584439,-1.5927209)" />
  </g>
  <g
     inkscape:groupmode="layer"
     id="layer2"
     inkscape:label="screw holes"
     style="opacity:1"
     sodipodi:insensitive="true">
    <circle
       r="4.7943487"
       cy="173.12071"
       cx="577.77429"
       id="circle4428"
       style="fill:none;fill-rule:evenodd;stroke:#000000;stroke-width:0.72055465px;stroke-linecap:butt;stroke-linejoin:miter;stroke-opacity:1"
       transform="matrix(0.86653398,0.49911808,-0.49911808,0.86653398,0,0)" />
    <circle
       style="fill:none;fill-rule:evenodd;stroke:#000000;stroke-width:0.72055465px;stroke-linecap:butt;stroke-linejoin:miter;stroke-opacity:1"
       id="circle4430"
       cx="667.06042"
       cy="173.78424"
       r="4.7943487"
       transform="matrix(0.86653398,0.49911808,-0.49911808,0.86653398,0,0)" />
    <circle
       style="fill:none;fill-rule:evenodd;stroke:#000000;stroke-width:0.72043073px;stroke-linecap:butt;stroke-linejoin:miter;stroke-opacity:1"
       id="path4408"
       cx="598.20831"
       cy="-141.34566"
       r="4.7935247"
       transform="matrix(0,1,-1,0,0,0)" />
    <circle
       r="4.7935247"
       cy="-141.47682"
       cx="688.24158"
       id="circle4420"
       style="fill:none;fill-rule:evenodd;stroke:#000000;stroke-width:0.72043073px;stroke-linecap:butt;stroke-linejoin:miter;stroke-opacity:1"
       transform="matrix(0,1,-1,0,0,0)" />
    <circle
       style="fill:none;fill-rule:evenodd;stroke:#000000;stroke-width:0.72055531px;stroke-linecap:butt;stroke-linejoin:miter;stroke-opacity:1"
       id="circle4434"
       cx="-64.442039"
       cy="938.19391"
       r="4.7943535"
       transform="matrix(0.86623334,-0.49963967,0.49963967,0.86623334,0,0)" />
    <circle
       r="4.7943535"
       cy="938.12701"
       cx="25.862204"
       id="circle4436"
       style="fill:none;fill-rule:evenodd;stroke:#000000;stroke-width:0.72055531px;stroke-linecap:butt;stroke-linejoin:miter;stroke-opacity:1"
       transform="matrix(0.86623334,-0.49963967,0.49963967,0.86623334,0,0)" />
  </g>
  <g
     inkscape:label="wiring cut outs."
     id="layer6"
     inkscape:groupmode="layer" />
  <g
     inkscape:groupmode="layer"
     id="layer3"
     inkscape:label="kicker cut out" />
</svg>
