EESchema Schematic File Version 2
LIBS:power
LIBS:device
LIBS:transistors
LIBS:conn
LIBS:linear
LIBS:regul
LIBS:74xx
LIBS:cmos4000
LIBS:adc-dac
LIBS:memory
LIBS:xilinx
LIBS:microcontrollers
LIBS:dsp
LIBS:microchip
LIBS:analog_switches
LIBS:motorola
LIBS:texas
LIBS:intel
LIBS:audio
LIBS:interface
LIBS:digital-audio
LIBS:philips
LIBS:display
LIBS:cypress
LIBS:siliconi
LIBS:opto
LIBS:atmel
LIBS:contrib
LIBS:valves
LIBS:kickerlib
LIBS:kicker_rev1-cache
EELAYER 25 0
EELAYER END
$Descr A4 11693 8268
encoding utf-8
Sheet 1 1
Title ""
Date ""
Rev ""
Comp ""
Comment1 ""
Comment2 ""
Comment3 ""
Comment4 ""
$EndDescr
$Comp
L THYRISTOR T1
U 1 1 56AD2FBC
P 6300 2500
F 0 "T1" H 6300 2600 50  0000 C CNN
F 1 "BT151S" H 6300 2400 50  0000 C CNN
F 2 "footprints:D-Pak_TO252AA_SCR" H 6300 2500 50  0001 C CNN
F 3 "" H 6300 2500 50  0000 C CNN
	1    6300 2500
	0    -1   -1   0   
$EndComp
$Comp
L AZ1117CH U1
U 1 1 56AD33A5
P 2150 2300
F 0 "U1" H 1850 2050 60  0000 C CNN
F 1 "AZ1117CH" H 2150 2500 60  0000 C CNN
F 2 "TO_SOT_Packages_SMD:SOT-223" H 2150 2300 60  0001 C CNN
F 3 "" H 2150 2300 60  0000 C CNN
	1    2150 2300
	1    0    0    -1  
$EndComp
$Comp
L GND #PWR01
U 1 1 56AD35C7
P 2800 2800
F 0 "#PWR01" H 2800 2550 50  0001 C CNN
F 1 "GND" H 2800 2650 50  0000 C CNN
F 2 "" H 2800 2800 50  0000 C CNN
F 3 "" H 2800 2800 50  0000 C CNN
	1    2800 2800
	1    0    0    -1  
$EndComp
$Comp
L +12V #PWR02
U 1 1 56AD3735
P 1250 1800
F 0 "#PWR02" H 1250 1650 50  0001 C CNN
F 1 "+12V" H 1250 1940 50  0000 C CNN
F 2 "" H 1250 1800 50  0000 C CNN
F 3 "" H 1250 1800 50  0000 C CNN
	1    1250 1800
	1    0    0    -1  
$EndComp
$Comp
L GND #PWR03
U 1 1 56AD37D4
P 2150 2800
F 0 "#PWR03" H 2150 2550 50  0001 C CNN
F 1 "GND" H 2150 2650 50  0000 C CNN
F 2 "" H 2150 2800 50  0000 C CNN
F 3 "" H 2150 2800 50  0000 C CNN
	1    2150 2800
	1    0    0    -1  
$EndComp
$Comp
L CP1 C2
U 1 1 56AD38DE
P 4250 2350
F 0 "C2" H 4275 2450 50  0000 L CNN
F 1 "CP1" H 4275 2250 50  0000 L CNN
F 2 "Capacitors_ThroughHole:C_Radial_D12.5_L25_P5" H 4250 2350 50  0001 C CNN
F 3 "" H 4250 2350 50  0000 C CNN
	1    4250 2350
	1    0    0    -1  
$EndComp
$Comp
L CP1 C3
U 1 1 56AD3912
P 4550 2350
F 0 "C3" H 4575 2450 50  0000 L CNN
F 1 "CP1" H 4575 2250 50  0000 L CNN
F 2 "Capacitors_ThroughHole:C_Radial_D12.5_L25_P5" H 4550 2350 50  0001 C CNN
F 3 "" H 4550 2350 50  0000 C CNN
	1    4550 2350
	1    0    0    -1  
$EndComp
$Comp
L Q_NMOS_GDSD Q1
U 1 1 56AD3A14
P 5400 2950
F 0 "Q1" H 5700 3000 50  0000 R CNN
F 1 "BSP125" H 5900 2900 50  0000 R CNN
F 2 "TO_SOT_Packages_SMD:SOT-223" H 5600 3050 50  0001 C CNN
F 3 "" H 5400 2950 50  0000 C CNN
	1    5400 2950
	1    0    0    -1  
$EndComp
$Comp
L R R2
U 1 1 56AD3B26
P 5500 2500
F 0 "R2" V 5580 2500 50  0000 C CNN
F 1 "3K3" V 5500 2500 50  0000 C CNN
F 2 "Resistors_SMD:R_0805_HandSoldering" V 5430 2500 50  0001 C CNN
F 3 "" H 5500 2500 50  0000 C CNN
	1    5500 2500
	1    0    0    -1  
$EndComp
$Comp
L R R1
U 1 1 56AD41BC
P 4950 2400
F 0 "R1" V 5030 2400 50  0000 C CNN
F 1 "1M" V 4950 2400 50  0000 C CNN
F 2 "Resistors_SMD:R_0805_HandSoldering" V 4880 2400 50  0001 C CNN
F 3 "" H 4950 2400 50  0000 C CNN
	1    4950 2400
	1    0    0    -1  
$EndComp
$Comp
L R R4
U 1 1 56AD4204
P 4950 2800
F 0 "R4" V 5030 2800 50  0000 C CNN
F 1 "10K" V 4950 2800 50  0000 C CNN
F 2 "Resistors_SMD:R_0805_HandSoldering" V 4880 2800 50  0001 C CNN
F 3 "" H 4950 2800 50  0000 C CNN
	1    4950 2800
	1    0    0    -1  
$EndComp
$Comp
L CONN_01X02 P1
U 1 1 56AD446A
P 5950 1700
F 0 "P1" H 5950 1850 50  0000 C CNN
F 1 "SOLENOID" V 6050 1700 50  0000 C CNN
F 2 "Pin_Headers:Pin_Header_Straight_1x02" H 5950 1700 50  0001 C CNN
F 3 "" H 5950 1700 50  0000 C CNN
	1    5950 1700
	0    -1   -1   0   
$EndComp
$Comp
L D D1
U 1 1 56AD4529
P 5950 2200
F 0 "D1" H 5950 2300 50  0000 C CNN
F 1 "S1M-13-F" H 5950 2100 50  0000 C CNN
F 2 "Diodes_SMD:SMA_Handsoldering" H 5950 2200 50  0001 C CNN
F 3 "" H 5950 2200 50  0000 C CNN
	1    5950 2200
	1    0    0    -1  
$EndComp
$Comp
L R R3
U 1 1 56AD4656
P 6050 2950
F 0 "R3" V 6130 2950 50  0000 C CNN
F 1 "330" V 6050 2950 50  0000 C CNN
F 2 "Resistors_SMD:R_0805_HandSoldering" V 5980 2950 50  0001 C CNN
F 3 "" H 6050 2950 50  0000 C CNN
	1    6050 2950
	1    0    0    -1  
$EndComp
$Comp
L +5V #PWR04
U 1 1 56AD50F4
P 1300 3800
F 0 "#PWR04" H 1300 3650 50  0001 C CNN
F 1 "+5V" H 1300 3940 50  0000 C CNN
F 2 "" H 1300 3800 50  0000 C CNN
F 3 "" H 1300 3800 50  0000 C CNN
	1    1300 3800
	1    0    0    -1  
$EndComp
$Comp
L GND #PWR05
U 1 1 56AD53B7
P 1150 6000
F 0 "#PWR05" H 1150 5750 50  0001 C CNN
F 1 "GND" H 1150 5850 50  0000 C CNN
F 2 "" H 1150 6000 50  0000 C CNN
F 3 "" H 1150 6000 50  0000 C CNN
	1    1150 6000
	1    0    0    -1  
$EndComp
$Comp
L ATMEGA168PB-A IC1
U 1 1 56AD58B7
P 2700 4900
F 0 "IC1" H 1950 6150 50  0000 L BNN
F 1 "ATMEGA168PB-A" H 3100 3500 50  0000 L BNN
F 2 "Housings_QFP:LQFP-32_7x7mm_Pitch0.8mm" H 2700 4900 50  0000 C CIN
F 3 "" H 2700 4900 50  0000 C CNN
	1    2700 4900
	1    0    0    -1  
$EndComp
$Comp
L +5V #PWR06
U 1 1 56AD5ACE
P 850 4000
F 0 "#PWR06" H 850 3850 50  0001 C CNN
F 1 "+5V" H 850 4140 50  0000 C CNN
F 2 "" H 850 4000 50  0000 C CNN
F 3 "" H 850 4000 50  0000 C CNN
	1    850  4000
	1    0    0    -1  
$EndComp
$Comp
L INDUCTOR_SMALL L1
U 1 1 56AD5B0C
P 1250 4100
F 0 "L1" H 1250 4200 50  0000 C CNN
F 1 "10uH" H 1250 4050 50  0000 C CNN
F 2 "Resistors_SMD:R_0805_HandSoldering" H 1250 4100 50  0001 C CNN
F 3 "" H 1250 4100 50  0000 C CNN
	1    1250 4100
	1    0    0    -1  
$EndComp
$Comp
L C C6
U 1 1 56AD5BEF
P 1600 4350
F 0 "C6" H 1625 4450 50  0000 L CNN
F 1 "100nF" H 1625 4250 50  0000 L CNN
F 2 "Capacitors_SMD:C_0805_HandSoldering" H 1638 4200 50  0001 C CNN
F 3 "" H 1600 4350 50  0000 C CNN
	1    1600 4350
	1    0    0    -1  
$EndComp
$Comp
L GND #PWR07
U 1 1 56AD5C89
P 1600 4700
F 0 "#PWR07" H 1600 4450 50  0001 C CNN
F 1 "GND" H 1600 4550 50  0000 C CNN
F 2 "" H 1600 4700 50  0000 C CNN
F 3 "" H 1600 4700 50  0000 C CNN
	1    1600 4700
	1    0    0    -1  
$EndComp
$Comp
L C C4
U 1 1 56AD6271
P 1400 2600
F 0 "C4" H 1425 2700 50  0000 L CNN
F 1 "10 uF" H 1425 2500 50  0000 L CNN
F 2 "Capacitors_SMD:C_0805_HandSoldering" H 1438 2450 50  0001 C CNN
F 3 "" H 1400 2600 50  0000 C CNN
	1    1400 2600
	1    0    0    -1  
$EndComp
$Comp
L GND #PWR08
U 1 1 56AD6341
P 1400 2900
F 0 "#PWR08" H 1400 2650 50  0001 C CNN
F 1 "GND" H 1400 2750 50  0000 C CNN
F 2 "" H 1400 2900 50  0000 C CNN
F 3 "" H 1400 2900 50  0000 C CNN
	1    1400 2900
	1    0    0    -1  
$EndComp
$Comp
L C C1
U 1 1 56AD63F9
P 2800 2550
F 0 "C1" H 2825 2650 50  0000 L CNN
F 1 "22 uF" H 2825 2450 50  0000 L CNN
F 2 "Capacitors_SMD:C_1206_HandSoldering" H 2838 2400 50  0001 C CNN
F 3 "" H 2800 2550 50  0000 C CNN
	1    2800 2550
	1    0    0    -1  
$EndComp
$Comp
L CONN_01X03 P4
U 1 1 56AD6734
P 8750 2600
F 0 "P4" H 8750 2800 50  0000 C CNN
F 1 "POWER" V 8850 2600 50  0000 C CNN
F 2 "Pin_Headers:Pin_Header_Straight_1x03" H 8750 2600 50  0001 C CNN
F 3 "" H 8750 2600 50  0000 C CNN
	1    8750 2600
	1    0    0    -1  
$EndComp
$Comp
L +5V #PWR09
U 1 1 56AD67B2
P 8200 2500
F 0 "#PWR09" H 8200 2350 50  0001 C CNN
F 1 "+5V" H 8200 2640 50  0000 C CNN
F 2 "" H 8200 2500 50  0000 C CNN
F 3 "" H 8200 2500 50  0000 C CNN
	1    8200 2500
	1    0    0    -1  
$EndComp
$Comp
L +12V #PWR010
U 1 1 56AD67FF
P 8050 2600
F 0 "#PWR010" H 8050 2450 50  0001 C CNN
F 1 "+12V" H 8050 2740 50  0000 C CNN
F 2 "" H 8050 2600 50  0000 C CNN
F 3 "" H 8050 2600 50  0000 C CNN
	1    8050 2600
	1    0    0    -1  
$EndComp
$Comp
L GND #PWR011
U 1 1 56AD684C
P 8350 2700
F 0 "#PWR011" H 8350 2450 50  0001 C CNN
F 1 "GND" H 8350 2550 50  0000 C CNN
F 2 "" H 8350 2700 50  0000 C CNN
F 3 "" H 8350 2700 50  0000 C CNN
	1    8350 2700
	1    0    0    -1  
$EndComp
$Comp
L C C5
U 1 1 56AD7054
P 1600 3600
F 0 "C5" H 1625 3700 50  0000 L CNN
F 1 ".1uF" H 1625 3500 50  0000 L CNN
F 2 "Capacitors_SMD:C_0805_HandSoldering" H 1638 3450 50  0001 C CNN
F 3 "" H 1600 3600 50  0000 C CNN
	1    1600 3600
	1    0    0    -1  
$EndComp
$Comp
L GND #PWR012
U 1 1 56AD721A
P 1600 3350
F 0 "#PWR012" H 1600 3100 50  0001 C CNN
F 1 "GND" H 1600 3200 50  0000 C CNN
F 2 "" H 1600 3350 50  0000 C CNN
F 3 "" H 1600 3350 50  0000 C CNN
	1    1600 3350
	-1   0    0    1   
$EndComp
$Comp
L CONN_02X05 P5
U 1 1 56AD7607
P 4600 6850
F 0 "P5" H 4600 7150 50  0000 C CNN
F 1 "CONN_02X05" H 4600 6550 50  0000 C CNN
F 2 "Pin_Headers:Pin_Header_Straight_2x05" H 4600 5650 50  0001 C CNN
F 3 "" H 4600 5650 50  0000 C CNN
	1    4600 6850
	1    0    0    -1  
$EndComp
$Comp
L GND #PWR013
U 1 1 56AD7918
P 5600 6900
F 0 "#PWR013" H 5600 6650 50  0001 C CNN
F 1 "GND" H 5600 6750 50  0000 C CNN
F 2 "" H 5600 6900 50  0000 C CNN
F 3 "" H 5600 6900 50  0000 C CNN
	1    5600 6900
	1    0    0    -1  
$EndComp
$Comp
L +5V #PWR014
U 1 1 56AD8566
P 5550 5800
F 0 "#PWR014" H 5550 5650 50  0001 C CNN
F 1 "+5V" H 5550 5940 50  0000 C CNN
F 2 "" H 5550 5800 50  0000 C CNN
F 3 "" H 5550 5800 50  0000 C CNN
	1    5550 5800
	1    0    0    -1  
$EndComp
$Comp
L R R5
U 1 1 56AD864C
P 5550 6000
F 0 "R5" V 5630 6000 50  0000 C CNN
F 1 "10K" V 5550 6000 50  0000 C CNN
F 2 "Resistors_SMD:R_0805_HandSoldering" V 5480 6000 50  0001 C CNN
F 3 "" H 5550 6000 50  0000 C CNN
	1    5550 6000
	1    0    0    -1  
$EndComp
Text Notes 9400 4400 0    60   ~ 0
NOTE: Odroid XU4 uses a 2mm header
Text Label 8150 3000 2    60   ~ 0
SDA
Text Label 8150 3100 2    60   ~ 0
SCL
Text Label 4250 5050 0    60   ~ 0
SDA
Text Label 4250 5150 0    60   ~ 0
SCL
$Comp
L PWR_FLAG #FLG015
U 1 1 56C3BA20
P 8400 2300
F 0 "#FLG015" H 8400 2395 50  0001 C CNN
F 1 "PWR_FLAG" H 8400 2480 50  0000 C CNN
F 2 "" H 8400 2300 50  0000 C CNN
F 3 "" H 8400 2300 50  0000 C CNN
	1    8400 2300
	1    0    0    -1  
$EndComp
$Comp
L PWR_FLAG #FLG016
U 1 1 56C3BB0B
P 8850 2250
F 0 "#FLG016" H 8850 2345 50  0001 C CNN
F 1 "PWR_FLAG" H 8850 2430 50  0000 C CNN
F 2 "" H 8850 2250 50  0000 C CNN
F 3 "" H 8850 2250 50  0000 C CNN
	1    8850 2250
	1    0    0    -1  
$EndComp
Text Label 4950 2000 0    60   ~ 0
HVP
Wire Wire Line
	2700 2300 2950 2300
Wire Wire Line
	1250 2300 1600 2300
Wire Wire Line
	2150 2800 2150 2700
Wire Wire Line
	4000 2200 5800 2200
Connection ~ 4250 2200
Wire Wire Line
	4550 2500 4550 2650
Connection ~ 4550 2200
Wire Wire Line
	5500 2200 5500 2350
Wire Wire Line
	5500 2650 5500 2750
Wire Wire Line
	4950 2000 4950 2250
Connection ~ 4950 2200
Wire Wire Line
	4950 2550 4950 2650
Wire Wire Line
	4950 2950 4950 3050
Wire Wire Line
	5500 3150 5500 3300
Connection ~ 5500 2200
Wire Wire Line
	4750 2600 4950 2600
Connection ~ 4950 2600
Wire Wire Line
	5100 2950 5200 2950
Wire Wire Line
	1300 3800 1800 3800
Wire Wire Line
	1800 5900 1500 5900
Wire Wire Line
	1500 5900 1500 6000
Wire Wire Line
	1500 6000 1800 6000
Wire Wire Line
	1150 6000 1150 5950
Wire Wire Line
	1150 5950 1500 5950
Connection ~ 1500 5950
Wire Wire Line
	850  4000 850  4100
Wire Wire Line
	850  4100 1000 4100
Wire Wire Line
	1500 4100 1800 4100
Wire Wire Line
	1600 4200 1600 4100
Connection ~ 1600 4100
Wire Wire Line
	1600 4500 1600 4700
Wire Wire Line
	1400 2450 1400 2300
Connection ~ 1400 2300
Wire Wire Line
	1400 2750 1400 2900
Connection ~ 2800 2300
Wire Wire Line
	8350 2700 8550 2700
Wire Wire Line
	8050 2600 8550 2600
Wire Wire Line
	8200 2500 8550 2500
Wire Wire Line
	1600 3750 1600 3800
Connection ~ 1600 3800
Wire Wire Line
	1600 3350 1600 3450
Wire Wire Line
	4850 6750 5600 6750
Wire Wire Line
	5600 6750 5600 6900
Wire Wire Line
	4850 6850 5050 6850
Wire Wire Line
	5050 6750 5050 7050
Connection ~ 5050 6750
Wire Wire Line
	5050 6950 4850 6950
Connection ~ 5050 6850
Wire Wire Line
	5050 7050 4850 7050
Connection ~ 5050 6950
Wire Wire Line
	5550 5800 5550 5850
Wire Wire Line
	3700 4100 4200 4100
Wire Wire Line
	4200 4100 4200 6650
Wire Wire Line
	4200 6650 4350 6650
Wire Wire Line
	3700 4300 3900 4300
Wire Wire Line
	3900 4300 3900 6950
Wire Wire Line
	3900 6950 4350 6950
Wire Wire Line
	3700 4200 4100 4200
Wire Wire Line
	4250 5050 3700 5050
Wire Wire Line
	4250 5150 3700 5150
Wire Wire Line
	2800 2400 2800 2300
Wire Wire Line
	2800 2700 2800 2800
Connection ~ 2800 2750
Wire Wire Line
	8400 2300 8400 2500
Connection ~ 8400 2500
Wire Wire Line
	8850 2250 8850 2350
Wire Wire Line
	8850 2350 8500 2350
Wire Wire Line
	8500 2350 8500 2600
Connection ~ 8500 2600
Wire Wire Line
	5600 2750 5600 2700
Wire Wire Line
	5600 2700 5500 2700
Connection ~ 5500 2700
Wire Wire Line
	4000 2600 4550 2600
Connection ~ 4550 2600
Wire Wire Line
	4250 2500 4250 2600
Connection ~ 4250 2600
$Comp
L GND #PWR017
U 1 1 56AD45AC
P 6300 2800
F 0 "#PWR017" H 6300 2550 50  0001 C CNN
F 1 "GND" H 6300 2650 50  0000 C CNN
F 2 "" H 6300 2800 50  0000 C CNN
F 3 "" H 6300 2800 50  0000 C CNN
	1    6300 2800
	1    0    0    -1  
$EndComp
$Comp
L GND #PWR018
U 1 1 56AD4348
P 5500 3300
F 0 "#PWR018" H 5500 3050 50  0001 C CNN
F 1 "GND" H 5500 3150 50  0000 C CNN
F 2 "" H 5500 3300 50  0000 C CNN
F 3 "" H 5500 3300 50  0000 C CNN
	1    5500 3300
	1    0    0    -1  
$EndComp
$Comp
L GND #PWR019
U 1 1 56AD42AA
P 4950 3050
F 0 "#PWR019" H 4950 2800 50  0001 C CNN
F 1 "GND" H 4950 2900 50  0000 C CNN
F 2 "" H 4950 3050 50  0000 C CNN
F 3 "" H 4950 3050 50  0000 C CNN
	1    4950 3050
	1    0    0    -1  
$EndComp
$Comp
L GND #PWR020
U 1 1 56AD39A3
P 4550 2650
F 0 "#PWR020" H 4550 2400 50  0001 C CNN
F 1 "GND" H 4550 2500 50  0000 C CNN
F 2 "" H 4550 2650 50  0000 C CNN
F 3 "" H 4550 2650 50  0000 C CNN
	1    4550 2650
	1    0    0    -1  
$EndComp
Text Label 6400 2200 0    60   ~ 0
HVO
Text Label 5200 3600 0    60   ~ 0
BLEED_GATE
Wire Wire Line
	5200 3600 5100 3600
Connection ~ 5100 3600
Text Label 4600 3600 2    60   ~ 0
VSENSE
Wire Wire Line
	4600 3600 4750 3600
Connection ~ 4750 3600
Text Label 6050 3700 0    60   ~ 0
TRIG
Wire Wire Line
	6050 3700 5900 3700
Connection ~ 5900 3700
$Comp
L CONN_01X02 P7
U 1 1 56C4E330
P 8400 5200
F 0 "P7" H 8400 5350 50  0000 C CNN
F 1 "MOTOR" V 8500 5200 50  0000 C CNN
F 2 "Pin_Headers:Pin_Header_Straight_1x02" H 8400 5200 50  0001 C CNN
F 3 "" H 8400 5200 50  0000 C CNN
	1    8400 5200
	1    0    0    -1  
$EndComp
$Comp
L D D2
U 1 1 56C4E471
P 7850 5200
F 0 "D2" H 7850 5300 50  0000 C CNN
F 1 "S1M-13-F" H 7850 5100 50  0000 C CNN
F 2 "Diodes_SMD:SMA_Handsoldering" H 7850 5200 50  0001 C CNN
F 3 "" H 7850 5200 50  0000 C CNN
	1    7850 5200
	0    1    1    0   
$EndComp
Wire Wire Line
	7850 5050 7850 4900
Wire Wire Line
	7850 4900 8050 4900
Wire Wire Line
	8050 4900 8050 5150
Wire Wire Line
	8050 5150 8200 5150
Wire Wire Line
	8200 5250 8050 5250
Wire Wire Line
	8050 5250 8050 5500
Wire Wire Line
	8050 5500 7850 5500
Wire Wire Line
	7850 5500 7850 5350
$Comp
L +5V #PWR021
U 1 1 56C4E6F5
P 7950 4800
F 0 "#PWR021" H 7950 4650 50  0001 C CNN
F 1 "+5V" H 7950 4940 50  0000 C CNN
F 2 "" H 7950 4800 50  0000 C CNN
F 3 "" H 7950 4800 50  0000 C CNN
	1    7950 4800
	1    0    0    -1  
$EndComp
Wire Wire Line
	7950 4800 7950 4900
Connection ~ 7950 4900
$Comp
L Q_NMOS_GSD Q4
U 1 1 56C4EC7A
P 7850 5800
F 0 "Q4" H 8150 5850 50  0000 R CNN
F 1 "AO3400A" H 8500 5750 50  0000 R CNN
F 2 "TO_SOT_Packages_SMD:SOT-23_Handsoldering" H 8050 5900 50  0001 C CNN
F 3 "" H 7850 5800 50  0000 C CNN
	1    7850 5800
	1    0    0    -1  
$EndComp
Wire Wire Line
	7950 5500 7950 5600
Connection ~ 7950 5500
$Comp
L GND #PWR022
U 1 1 56C4EFC8
P 7950 6100
F 0 "#PWR022" H 7950 5850 50  0001 C CNN
F 1 "GND" H 7950 5950 50  0000 C CNN
F 2 "" H 7950 6100 50  0000 C CNN
F 3 "" H 7950 6100 50  0000 C CNN
	1    7950 6100
	1    0    0    -1  
$EndComp
Wire Wire Line
	7950 6100 7950 6000
Text Label 7400 5800 2    60   ~ 0
MOTOR
Wire Wire Line
	7400 5800 7650 5800
Text Label 5100 5700 0    60   ~ 0
MOTOR
$Comp
L CP1 C7
U 1 1 56C53FED
P 6600 5450
F 0 "C7" H 6625 5550 50  0000 L CNN
F 1 "CP1" H 6625 5350 50  0000 L CNN
F 2 "Capacitors_ThroughHole:C_Radial_D12.5_L25_P5" H 6600 5450 50  0001 C CNN
F 3 "" H 6600 5450 50  0000 C CNN
	1    6600 5450
	1    0    0    -1  
$EndComp
$Comp
L +5V #PWR023
U 1 1 56C540B4
P 6600 5200
F 0 "#PWR023" H 6600 5050 50  0001 C CNN
F 1 "+5V" H 6600 5340 50  0000 C CNN
F 2 "" H 6600 5200 50  0000 C CNN
F 3 "" H 6600 5200 50  0000 C CNN
	1    6600 5200
	1    0    0    -1  
$EndComp
$Comp
L GND #PWR024
U 1 1 56C5410A
P 6600 5700
F 0 "#PWR024" H 6600 5450 50  0001 C CNN
F 1 "GND" H 6600 5550 50  0000 C CNN
F 2 "" H 6600 5700 50  0000 C CNN
F 3 "" H 6600 5700 50  0000 C CNN
	1    6600 5700
	1    0    0    -1  
$EndComp
Wire Wire Line
	6600 5200 6600 5300
Wire Wire Line
	6600 5600 6600 5700
Wire Wire Line
	8150 3000 8550 3000
Wire Wire Line
	8150 3100 8550 3100
$Comp
L CONN_01X03 P6
U 1 1 56C55009
P 8750 3100
F 0 "P6" H 8750 3300 50  0000 C CNN
F 1 "I2C_5V" V 8850 3100 50  0000 C CNN
F 2 "Pin_Headers:Pin_Header_Straight_1x03" H 8750 3100 50  0001 C CNN
F 3 "" H 8750 3100 50  0000 C CNN
	1    8750 3100
	1    0    0    -1  
$EndComp
NoConn ~ 4850 6650
NoConn ~ 4350 6750
Wire Wire Line
	3700 5250 4000 5250
Wire Wire Line
	4000 5250 4000 6850
Wire Wire Line
	4000 6850 4350 6850
Wire Wire Line
	5550 6150 5550 6300
Wire Wire Line
	5550 6300 4000 6300
Connection ~ 4000 6300
Wire Wire Line
	4350 7050 4100 7050
Wire Wire Line
	4100 7050 4100 4200
Wire Wire Line
	3700 5800 4600 5800
Wire Wire Line
	4600 5800 4600 5400
Wire Wire Line
	5100 2950 5100 4600
Wire Wire Line
	5900 1900 5900 2000
Wire Wire Line
	5900 2000 5700 2000
Wire Wire Line
	5700 2000 5700 2200
Connection ~ 5700 2200
Wire Wire Line
	6000 1900 6000 2000
Wire Wire Line
	6000 2000 6200 2000
Wire Wire Line
	6200 2000 6200 2200
Wire Wire Line
	6100 2200 6400 2200
Wire Wire Line
	6200 2600 6050 2600
Wire Wire Line
	6050 2600 6050 2800
Wire Wire Line
	6300 2700 6300 2800
Wire Wire Line
	6300 2200 6300 2300
Connection ~ 6200 2200
Wire Wire Line
	6050 3100 6050 3350
Wire Wire Line
	6050 3350 5900 3350
Connection ~ 6300 2200
$Comp
L CONN_01X02 P10
U 1 1 56DDDA55
P 4800 1250
F 0 "P10" H 4800 1400 50  0000 C CNN
F 1 "EXPAND" V 4900 1250 50  0000 C CNN
F 2 "" H 4800 1250 50  0001 C CNN
F 3 "" H 4800 1250 50  0000 C CNN
	1    4800 1250
	1    0    0    -1  
$EndComp
Text Label 4500 1100 0    60   ~ 0
HVP
$Comp
L GND #PWR025
U 1 1 56DDDBE7
P 4500 1350
F 0 "#PWR025" H 4500 1100 50  0001 C CNN
F 1 "GND" H 4500 1200 50  0000 C CNN
F 2 "" H 4500 1350 50  0000 C CNN
F 3 "" H 4500 1350 50  0000 C CNN
	1    4500 1350
	1    0    0    -1  
$EndComp
Wire Wire Line
	4500 1350 4500 1300
Wire Wire Line
	4500 1300 4600 1300
Wire Wire Line
	4600 1200 4500 1200
Wire Wire Line
	4500 1200 4500 1100
$Comp
L CONN_01X01 P11
U 1 1 56F35760
P 6200 4000
F 0 "P11" H 6200 4100 50  0000 C CNN
F 1 "TRIG" V 6300 4000 50  0000 C CNN
F 2 "Pin_Headers:Pin_Header_Straight_1x01" H 6200 4000 50  0001 C CNN
F 3 "" H 6200 4000 50  0000 C CNN
	1    6200 4000
	1    0    0    -1  
$EndComp
Wire Wire Line
	6000 4000 5900 4000
Connection ~ 5900 4000
$Comp
L R R6
U 1 1 56F36219
P 7200 2750
F 0 "R6" V 7280 2750 50  0000 C CNN
F 1 "4K7" V 7200 2750 50  0000 C CNN
F 2 "Resistors_SMD:R_0805_HandSoldering" V 7130 2750 50  0001 C CNN
F 3 "" H 7200 2750 50  0000 C CNN
	1    7200 2750
	1    0    0    -1  
$EndComp
$Comp
L R R7
U 1 1 56F362BA
P 7400 2750
F 0 "R7" V 7480 2750 50  0000 C CNN
F 1 "4K7" V 7400 2750 50  0000 C CNN
F 2 "Resistors_SMD:R_0805_HandSoldering" V 7330 2750 50  0001 C CNN
F 3 "" H 7400 2750 50  0000 C CNN
	1    7400 2750
	1    0    0    -1  
$EndComp
$Comp
L +5V #PWR026
U 1 1 56F3632B
P 7300 2400
F 0 "#PWR026" H 7300 2250 50  0001 C CNN
F 1 "+5V" H 7300 2540 50  0000 C CNN
F 2 "" H 7300 2400 50  0000 C CNN
F 3 "" H 7300 2400 50  0000 C CNN
	1    7300 2400
	1    0    0    -1  
$EndComp
Wire Wire Line
	7300 2400 7300 2500
Wire Wire Line
	7200 2500 7400 2500
Wire Wire Line
	7200 2500 7200 2600
Wire Wire Line
	7400 2500 7400 2600
Connection ~ 7300 2500
Wire Wire Line
	7200 3000 7200 2900
Wire Wire Line
	7400 3000 7400 2900
Text Label 7200 3000 3    60   ~ 0
SDA
Text Label 7400 3000 3    60   ~ 0
SCL
$Comp
L R R8
U 1 1 56F371FB
P 1250 2050
F 0 "R8" V 1330 2050 50  0000 C CNN
F 1 "0" V 1250 2050 50  0000 C CNN
F 2 "Resistors_SMD:R_0805_HandSoldering" V 1180 2050 50  0001 C CNN
F 3 "" H 1250 2050 50  0000 C CNN
	1    1250 2050
	1    0    0    -1  
$EndComp
Wire Wire Line
	1250 1800 1250 1900
Wire Wire Line
	1250 2200 1250 2300
$Comp
L R R9
U 1 1 56F37E50
P 5100 4750
F 0 "R9" V 5180 4750 50  0000 C CNN
F 1 "10K" V 5100 4750 50  0000 C CNN
F 2 "Resistors_SMD:R_0805_HandSoldering" V 5030 4750 50  0001 C CNN
F 3 "" H 5100 4750 50  0000 C CNN
	1    5100 4750
	1    0    0    -1  
$EndComp
$Comp
L GND #PWR027
U 1 1 56F37ED9
P 5100 5000
F 0 "#PWR027" H 5100 4750 50  0001 C CNN
F 1 "GND" H 5100 4850 50  0000 C CNN
F 2 "" H 5100 5000 50  0000 C CNN
F 3 "" H 5100 5000 50  0000 C CNN
	1    5100 5000
	1    0    0    -1  
$EndComp
Wire Wire Line
	5100 5000 5100 4900
Connection ~ 5100 4500
Wire Wire Line
	4750 2600 4750 4750
NoConn ~ 8550 3200
$Comp
L R R10
U 1 1 56F3A79C
P 4450 4750
F 0 "R10" V 4530 4750 50  0000 C CNN
F 1 "0" V 4450 4750 50  0000 C CNN
F 2 "Resistors_SMD:R_0805_HandSoldering" V 4380 4750 50  0001 C CNN
F 3 "" H 4450 4750 50  0000 C CNN
	1    4450 4750
	0    1    1    0   
$EndComp
Wire Wire Line
	4750 4750 4600 4750
Wire Wire Line
	4300 4750 3700 4750
$Comp
L R R11
U 1 1 56F3AC3D
P 5300 5400
F 0 "R11" V 5380 5400 50  0000 C CNN
F 1 "0" V 5300 5400 50  0000 C CNN
F 2 "Resistors_SMD:R_0805_HandSoldering" V 5230 5400 50  0001 C CNN
F 3 "" H 5300 5400 50  0000 C CNN
	1    5300 5400
	0    1    1    0   
$EndComp
Wire Wire Line
	4600 5400 5150 5400
Wire Wire Line
	5900 5400 5450 5400
$Comp
L R R12
U 1 1 56F3B723
P 4450 4500
F 0 "R12" V 4530 4500 50  0000 C CNN
F 1 "0" V 4450 4500 50  0000 C CNN
F 2 "Resistors_SMD:R_0805_HandSoldering" V 4380 4500 50  0001 C CNN
F 3 "" H 4450 4500 50  0000 C CNN
	1    4450 4500
	0    1    1    0   
$EndComp
Wire Wire Line
	4300 4500 3700 4500
Wire Wire Line
	4600 4500 5100 4500
Wire Wire Line
	3700 5700 4700 5700
$Comp
L R R13
U 1 1 56F3C68E
P 4850 5700
F 0 "R13" V 4930 5700 50  0000 C CNN
F 1 "0" V 4850 5700 50  0000 C CNN
F 2 "Resistors_SMD:R_0805_HandSoldering" V 4780 5700 50  0001 C CNN
F 3 "" H 4850 5700 50  0000 C CNN
	1    4850 5700
	0    1    1    0   
$EndComp
Wire Wire Line
	5100 5700 5000 5700
$Comp
L R R14
U 1 1 56F3D2F7
P 5900 5050
F 0 "R14" V 5980 5050 50  0000 C CNN
F 1 "0" V 5900 5050 50  0000 C CNN
F 2 "Resistors_SMD:R_0805_HandSoldering" V 5830 5050 50  0001 C CNN
F 3 "" H 5900 5050 50  0000 C CNN
	1    5900 5050
	1    0    0    -1  
$EndComp
Wire Wire Line
	5900 5200 5900 5400
Wire Wire Line
	5900 3350 5900 4900
$Comp
L CONN_02X02 P2
U 1 1 56F3E489
P 3400 2350
F 0 "P2" H 3400 2500 50  0000 C CNN
F 1 "CAMERA" H 3400 2200 50  0000 C CNN
F 2 "footprints:FLASH_A" H 3400 1150 50  0001 C CNN
F 3 "" H 3400 1150 50  0000 C CNN
	1    3400 2350
	0    -1   -1   0   
$EndComp
Wire Wire Line
	3350 2100 3350 2000
Wire Wire Line
	3350 2000 2950 2000
Wire Wire Line
	2950 2000 2950 2300
Wire Wire Line
	2800 2750 3350 2750
Wire Wire Line
	3350 2750 3350 2600
Wire Wire Line
	4000 2200 4000 2000
Wire Wire Line
	4000 2000 3450 2000
Wire Wire Line
	3450 2000 3450 2100
Wire Wire Line
	3450 2600 3450 2700
Wire Wire Line
	3450 2700 4000 2700
Wire Wire Line
	4000 2700 4000 2600
$EndSCHEMATC
